Lab-1/blink_tb.vcd
$date
	Thu Aug  4 15:59:28 2022
$end
$version
	Icarus Verilog
$end
$timescale
	1ps
$end
$scope module blink_tb $end
$scope module blink_tb $end
$var wire 1 ! CLK $end
$var wire 1 " LED $end
$var reg 26 # counter [25:0] $end
$upscope $end
$upscope $end
$enddefinitions $end
#0
$dumpvars
b0 #
0"
0!
$end
#10000
b1 #
1!
#20000
0!
#30000
b10 #
1!
#40000
0!
#50000
b11 #
1!
#60000
0!
#70000
b100 #
1!
#80000
0!
#90000
b101 #
1!
#100000
0!
#110000
b110 #
1!
#120000
0!
#130000
b111 #
1!
#140000
0!
#150000
b1000 #
1!
#160000
0!
#170000
b1001 #
1!
#180000
0!
#190000
b1010 #
1!
#200000
0!
#210000
b1011 #
1!
#220000
0!
#230000
b1100 #
1!
#240000
0!
#250000
b1101 #
1!
#260000
0!
#270000
b1110 #
1!
#280000
0!
#290000
b1111 #
1!
#300000
0!
#310000
b10000 #
1!
